Place,Event,Equipment,WeightClassKg,Sex,Name,Division,BirthDate,Age,BodyweightKg,Team,Country,Squat1Kg,Squat2Kg,Squat3Kg,Best3SquatKg,Squat4Kg,Bench1Kg,Bench2Kg,Bench3Kg,Best3BenchKg,Bench4Kg,Deadlift1Kg,Deadlift2Kg,Deadlift3Kg,Best3DeadliftKg,Deadlift4Kg,TotalKg
1,D,Raw,56,F,Agnė Katilevičiūtė,Open,1993-07-29,30,55.50,Powerlifting love,Lithuania,,,,,,,,,,,115,125,132.5,132.5,,132.5
1,D,Raw,60,F,Justė Tuskaitė,Open,1992-02-25,31,58.70,DK Strength Team,Lithuania,,,,,,,,,,,155,160,165,165,-170,165
1,D,Raw,82.5,F,Ramunė Šefeldienė,Open,1986-11-02,37,77.50,SefelTeam,Lithuania,,,,,,,,,,,170,179,185,185,,185
1,D,Raw,75,M,Ricardas Jakumas,Teen 14-16,2009-05-13,14,74.10,SefelTeam,Lithuania,,,,,,,,,,,50,-72.5,80,80,,80
1,D,Raw,75,M,Paulius Kivylius,Open,1992-12-08,30,74.30,,Lithuania,,,,,,,,,,,-210,210,220,220,,220
1,D,Raw,82.5,M,Marijonas Mackonis,Open,1995-04-06,28,81.50,,Lithuania,,,,,,,,,,,230,-250,-250,230,,230
1,D,Raw,82.5,M,Andris Lūsis,Masters 40-49,1983-07-07,40,82.10,,Latvia,,,,,,,,,,,250,260,-265,260,,260
1,D,Raw,90,M,Andrius Naglius,Open,1985-08-07,38,89.80,DK Strength Team,Lithuania,,,,,,,,,,,300,315,320,320,,320
2,D,Raw,90,M,Evaldas Černiauskas,Open,1984-04-07,39,90,DK Strength Team,Lithuania,,,,,,,,,,,270,282.5,-287.5,282.5,,282.5
3,D,Raw,90,M,Ruslan Kosse,Open,1997-03-03,26,88.9,WRPF Spain,Spain,,,,,,,,,,,250,262.5,270,270,,270
1,D,Raw,100,M,Romas Rudys,Open,1999-09-02,24,91,SefelTeam,Lithuania,,,,,,,,,,,175,190,200,200,,200
1,D,Raw,110,M,Tomas Milosas,Juniors 20-23,2000-05-29,23,104.30,SefelTeam,Lithuania,,,,,,,,,,,185,200,215,215,,215
1,D,Raw,110,M,Modestas Kasperavičius,Open,1998-06-22,25,108.40,DK Strength Team,Lithuania,,,,,,,,,,,290,-305,305,305,,305
1,D,Raw,110,M,Maris Kipurs,Masters 40-49,1978-09-29,45,105.60,,Latvia,,,,,,,,,,,225,-245,250,250,,250
1,D,Raw,125,M,Kestutis Augylius,Masters 40-49,1982-08-17,41,114.30,,Ireland,,,,,,,,,,,305,325,-330,325,,325
1,BD,Raw,60,F,Justė Tuskaitė,Open,1992-02-25,31,58.70,DK Strength Team,Lithuania,,,,,,60,-62.5,,60,,155,160,165,165,-170,225
1,BD,Raw,82.5,F,Ramunė Šefeldienė,Open,1986-11-02,37,77.50,SefelTeam,Lithuania,,,,,,90,97.5,101,101,,170,179,185,185,,286
1,BD,Raw,60,M,Mykolas Sidaras,Teen 14-16,2008-03-27,15,59.50,,Lithuania,,,,,,40,47.5,55,55,,70,80,-85,80,,135
1,BD,Raw,75,M,Ricardas Jakumas,Teen 14-16,2009-05-13,14,74.10,SefelTeam,Lithuania,,,,,,32.5,40,-45,40,,50,-72.5,80,80,,120
1,BD,Raw,82.5,M,Marijonas Mackonis,Open,1995-04-06,28,81.50,,Lithuania,,,,,,130,140,-145,140,,230,-250,-250,230,,370
1,BD,Raw,82.5,M,Andris Lūsis,Masters 40-49,1983-07-07,40,82.10,,Latvia,,,,,,-140,140,-145,140,,250,260,-265,260,,400
1,BD,Raw,90,M,Evaldas Černiauskas,Open,1984-04-07,39,90,DK Strength Team,Lithuania,,,,,,195,210,217.5,217.5,,270,282.5,-287.5,282.5,,500
2,BD,Raw,90,M,Andrius Naglius,Open,1985-08-07,38,89.80,DK Strength Team,Lithuania,,,,,,170,177.5,-182.5,177.5,,300,315,320,320,,497.5
3,BD,Raw,90,M,Sander Pikk,Open,1995-01-20,28,84.80,Klubi Kover Kang,Estonia,,,,,,162.5,-167.5,-167.5,162.5,,235,242.5,247.5,247.5,,410
4,BD,Raw,90,M,Andžej Telepcov,Open,1997-09-27,26,86.80,Pain Team,Lithuania,,,,,,135,145,152.5,152.5,,200,220,-237.5,220,,372.5
1,BD,Raw,100,M,Rimgaudas Augylius,Sub-Juniors 17-19,2006-05-06,17,97.80,,Lithuania,,,,,,80,90,100,100,,140,160,175,175,,275
1,BD,Raw,100,M,Marius Anilionis,Juniors 20-23,2000-05-10,23,98.40,VU Komanda,Lithuania,,,,,,172.5,180,-186,180,,230,-240,,230,,410
1,BD,Raw,100,M,Mantas Bendikas,Open,1986-12-22,36,93.50,,Ireland,,,,,,100,-105,-105,100,,220,235,245,245,,345
2,BD,Raw,100,M,Romas Rudys,Open,1999-09-02,24,91,SefelTeam,Lithuania,,,,,,105,115,-120,115,,175,190,200,200,,315
1,BD,Raw,110,M,Tomas Milosas,Juniors 20-23,2000-05-29,23,104.30,SefelTeam,Lithuania,,,,,,142.5,-150,150,150,,185,200,215,215,,365
1,BD,Raw,110,M,Modestas Beinoravičius,Masters 40-49,1977-05-23,46,107.70,,Lithuania,,,,,,190,197.5,-202.5,197.5,,265,,,265,,462.5
2,BD,Raw,110,M,Maris Kipurs,Masters 40-49,1978-09-29,45,105.60,,Latvia,,,,,,145,-155,155,155,,225,-245,250,250,,405
1,BD,Raw,125,M,Kaido Kuusik,Open,1985-09-23,38,123.70,Klubi Kover Kang,Estonia,,,,,,195,205,212.5,212.5,,300,320,-330,320,,532.5
2,BD,Raw,125,M,Vytautas Sakavicius,Open,1988-07-31,35,121.40,DK Strength Team,Lithuania,,,,,,155,-165,172.5,172.5,,285,295,-300,295,,467.5
1,BD,Raw,125,M,Kestutis Augylius,Masters 40-49,1982-08-17,41,114.30,,Ireland,,,,,,185,195,205,205,,305,325,-330,325,,530
2,BD,Raw,125,M,Jaak Ruusmaa,Masters 40-49,1978-05-07,45,122.60,Klubi Kover Kang,Estonia,,,,,,175,182.5,-187.5,182.5,,255,270,-277.5,270,,452.5
1,BD,Raw,140,M,Aurimas Grabinskas,Open,1987-08-16,36,135,DK Strength Team,Lithuania,,,,,,210,222.5,-230,222.5,,320,340,-357.5,340,,562.5
1,B,Raw,56,F,Ieva Lūse,Masters 40-49,1980-11-11,43,54.10,,Latvia,,,,,,-40,40,45,45,,,,,,,45
1,B,Raw,60,F,Daiva Čalnarienė,Masters 40-49,1974-07-02,49,59.60,,Lithuania,,,,,,77.5,80,81,81,,,,,,,81
1,B,Raw,67.5,F,Catrin Kelly,Juniors 20-23,2000-08-27,23,63.70,Klubi Kover Kang,Estonia,,,,,,62.5,65,-67.5,65,,,,,,,65
1,B,Raw,67.5,F,Igne Umbrasaite,Open,1997-10-20,26,64.40,Powerlifting love,Lithuania,,,,,,60,-62.5,62.5,62.5,,,,,,,62.5
1,B,Raw,75,F,Neringa Skirgailienė,Open,1984-10-04,39,73.70,DK Strength Team,Lithuania,,,,,,70,75,80,80,,,,,,,80
2,B,Raw,75,F,Ieva Vališkytė,Open,1986-02-10,37,72.90,,Lithuania,,,,,,55,60,-65,60,,,,,,,60
1,B,Raw,82.5,F,Helena Gimeno Valero,Open,1997-04-07,26,76.40,WRPF Spain,Spain,,,,,,107.5,115,117.5,117.5,,,,,,,117.5
2,B,Raw,82.5,F,Ramunė Šefeldienė,Open,1986-11-02,37,77.50,SefelTeam,Lithuania,,,,,,90,97.5,101,101,,,,,,,101
1,B,Raw,67.5,M,Arvydas Petrauskas,Open,1997-01-02,26,67.10,,Lithuania,,,,,,130,-135,-135,130,,,,,,,130
1,B,Raw,75,M,Ricardas Jakumas,Teen 14-16,2009-05-13,14,74.10,SefelTeam,Lithuania,,,,,,32.5,40,-45,40,,,,,,,40
1,B,Raw,75,M,Laurynas Lukoševičius,Open,1999-04-14,24,75,VU Komanda,Lithuania,,,,,,190,205,-217.5,205,,,,,,,205
2,B,Raw,75,M,Kalin Krasimirov,Open,1992-02-19,31,74.90,,Spain,,,,,,170,177.5,-182.5,177.5,,,,,,,177.5
1,B,Raw,82.5,M,Marijonas Mackonis,Open,1995-04-06,28,81.50,,Lithuania,,,,,,130,140,-145,140,,,,,,,140
2,B,Raw,82.5,M,Pāvels Grigorjevs,Masters 40-49,1974-07-28,49,81.80,,Latvia,,,,,,147.5,155,-160,155,,,,,,,155
1,B,Raw,90,M,Evaldas Černiauskas,Open,1984-04-07,39,90,DK Strength Team,Lithuania,,,,,,195,210,217.5,217.5,,,,,,,217.5
2,B,Raw,90,M,Andrius Naglius,Open,1985-08-07,38,89.80,DK Strength Team,Lithuania,,,,,,170,177.5,-182.5,177.5,,,,,,,177.5
3,B,Raw,90,M,Paulius Radionovas,Open,1996-01-16,27,89.50,Ursa Power,Lithuania,,,,,,145,152.5,157.5,157.5,,,,,,,157.5
4,B,Raw,90,M,Andžej Telepcov,Open,1997-09-27,26,86.80,Pain Team,Lithuania,,,,,,135,145,152.5,152.5,,,,,,,152.5
1,B,Raw,90,M,Žilvinas Šidlauskas,Masters 40-49,1976-09-29,47,90,,Lithuania,,,,,,145,152.5,157.5,157.5,,,,,,,157.5
2,B,Raw,90,M,Longins Augstkalns,Masters 60-69,1954-09-23,69,88.50,,Latvia,,,,,,127.5,135,140,140,,,,,,,140
1,B,Raw,100,M,Giedrius Kaleckas,Open,1988-07-14,35,98,,Lithuania,,,,,,205,210,-215,210,,,,,,,210
2,B,Raw,100,M,Vadims Kondratjevs,Open,1993-09-16,30,95.10,,Latvia,,,,,,165,172.5,-177.5,172.5,,,,,,,172.5
3,B,Raw,100,M,Laurynas Liudvinavicius,Open,1995-07-16,28,97.90,,Lithuania,,,,,,160,167.5,172.5,172.5,,,,,,,172.5
4,B,Raw,100,M,Romas Rudys,Open,1999-09-02,24,91,SefelTeam,Lithuania,,,,,,105,115,-120,115,,,,,,,115
DQ,B,Raw,100,M,Aleksejs Malinnikovs,Masters 40-49,1979-10-15,44,99.10,,Latvia,,,,,,-175,-182.5,-182.5,,,,,,,,
1,B,Raw,110,M,Tomas Milosas,Juniors 20-23,2000-05-29,23,104.30,SefelTeam,Lithuania,,,,,,142.5,-150,150,150,,,,,,,150
1,B,Raw,110,M,Alvydas Platakis,Open,1989-10-23,34,110,,Lithuania,,,,,,180,187.5,192.5,192.5,,,,,,,192.5
1,B,Raw,110,M,Leonas Varanavičius,Masters 50-59,1972-11-08,51,105,,Lithuania,,,,,,170,180,190,190,,,,,,,190
2,B,Raw,110,M,Maksims Udalovs,Masters 40-49,1974-07-14,49,106.20,,Latvia,,,,,,165,170,177.5,177.5,,,,,,,177.5
3,B,Raw,110,M,Darius Veršinskas,Masters 40-49,1982-12-11,40,108,,Lithuania,,,,,,177.5,-185,-185,177.5,,,,,,,177.5
4,B,Raw,110,M,Maris Kipurs,Masters 40-49,1978-09-29,45,105.60,,Latvia,,,,,,145,-155,155,155,,,,,,,155
1,B,Raw,140,M,Ardo Lilleorg,Open,1990-04-13,33,125.80,,Estonia,,,,,,240,250,-252.5,250,,,,,,,250
2,B,Raw,125,M,Donatas Daučiūnas,Open,1993-10-09,30,120.80,,Lithuania,,,,,,210,217.5,222.5,222.5,,,,,,,222.5
1,B,Raw,125,M,Svajūnas Tamulevičius,Masters 40-49,1982-06-24,41,120,,Lithuania,,,,,,240,250,,250,,,,,,,250
2,B,Raw,125,M,Kestutis Augylius,Masters 40-49,1982-08-17,41,114.30,,Ireland,,,,,,185,195,205,205,,,,,,,205
3,B,Raw,125,M,Ruben Horacio,Masters 50-59,1965-12-02,57,120.50,WRPF Spain,Spain,,,,,,170,185.5,190,190,-200,,,,,,190
4,B,Raw,125,M,Jaak Ruusmaa,Masters 40-49,1978-05-07,45,122.60,Klubi Kover Kang,Estonia,,,,,,175,182.5,-187.5,182.5,,,,,,,182.5
1,B,Raw,140,M,Raiko Borissov,Open,1989-03-14,34,134.20,Klubi Kover Kang,Estonia,,,,,,240,252.5,-257.5,252.5,,,,,,,252.5
2,B,Raw,140,M,Saulius Skikas,Open,1988-10-05,35,132.10,,Lithuania,,,,,,215,-225,225,225,,,,,,,225
3,B,Raw,140,M,Aurimas Grabinskas,Open,1987-08-16,36,135,DK Strength Team,Lithuania,,,,,,210,222.5,-230,222.5,,,,,,,222.5
1,B,Raw,140,M,Mareks Leitis,Masters 40-49,1976-09-23,47,139.50,,Latvia,,,,,,207.5,215,217.5,217.5,,,,,,,217.5
2,B,Raw,140,M,Tomas Drevnickis,Masters 40-49,1979-04-20,44,129,,Lithuania,,,,,,210,-217.5,-217.5,210,,,,,,,210
1,B,Raw,140+,M,Marek Polkovskij,Open,1984-02-29,39,156.40,,Lithuania,,,,,,253,260,-265,260,,,,,,,260
1,SBD,Raw,52,F,Beatrice Raukštaite,Juniors 20-23,2001-01-29,22,49.80,Powerlifting love,Lithuania,77.5,-82.5,82.5,82.5,,40,-42.5,,40,,95,100,105,105,,227.5
1,SBD,Raw,56,F,Sofija Baranauskaitė,Sub-Juniors 17-19,2006-10-16,17,55.50,Powerlifting love,Lithuania,115,120,-125,120,,55,57.5,,57.5,,145,-152.5,-152.5,145,,322.5
1,SBD,Raw,56,F,Agnė Katilevičiūtė,Open,1993-07-29,30,55.50,Powerlifting love,Lithuania,90,97.5,102.5,102.5,,45,52.5,55,55,,115,125,132.5,132.5,,290
1,SBD,Raw,60,F,Odilija Lisauskaite,Teen 14-16,2006-11-24,16,57.80,Powerlifting love,Lithuania,82.5,87.5,92.5,92.5,,52.5,55,57.5,57.5,,110,115,-120,115,,265
1,SBD,Raw,60,F,Erneta Žygaitė,Juniors 20-23,2003-07-27,20,57.80,,Lithuania,90,95,100,100,,45,50,-52.5,50,,105,-112.5,112.5,112.5,,262.5
1,SBD,Raw,60,F,Justė Tuskaitė,Open,1992-02-25,31,58.70,DK Strength Team,Lithuania,140,145,-150,145,,60,-62.5,,60,,155,160,165,165,-170,370
1,SBD,Raw,67.5,F,Meda Sulskyte,Juniors 20-23,2003-04-04,20,63.90,VU Komanda,Lithuania,100,107.5,112.5,112.5,,52.5,-55,60,60,,120,130,140,140,,312.5
2,SBD,Raw,67.5,F,Catrin Kelly,Juniors 20-23,2000-08-27,23,63.70,Klubi Kover Kang,Estonia,75,85,90,90,,62.5,65,-67.5,65,,100,105,110,110,,265
1,SBD,Raw,67.5,F,Marilin Pirnipuu,Open,1988-04-12,35,62.70,Klubi Kover Kang,Estonia,-110,115,120,120,,52.5,57.5,60,60,,135,142.5,150,150,,330
1,SBD,Raw,75,F,Migle Podvaiskyte,Juniors 20-23,2002-07-21,21,71,Powerlifting love,Lithuania,146,155,-160,155,,85,-87.5,-87.5,85,,160,170,-175,170,,410
2,SBD,Raw,75,F,Aleksandra Simanavičiūtė,Sub-Juniors 17-19,2006-09-16,17,75,Powerlifting love,Lithuania,125,-130,-130,125,,55,57.5,60,60,,110,120,125,125,,310
1,SBD,Raw,75,F,Migle Podvaiskyte,Open,2002-07-21,21,71,Powerlifting love,Lithuania,146,155,-160,155,,85,-87.5,-87.5,85,,160,170,-175,170,,410
2,SBD,Raw,75,F,Doris Rosenberg,Open,1996-05-01,27,69.80,Klubi Kover Kang,Estonia,115,120,127.5,127.5,,65,70,-72.5,70,,142.5,-150,150,150,,347.5
3,SBD,Raw,75,F,Kira Stsepina,Open,1990-02-11,33,71.80,,Lithuania,102.5,-107.5,,102.5,,65,67.5,-70,67.5,,117.5,122.5,127.5,127.5,,297.5
1,SBD,Raw,82.5,F,Amelija Bakutė,Sub-Juniors 17-19,2004-06-21,19,78,Powerlifting love,Lithuania,115,-120,120,120,-125,60,65,-67.5,65,,120,130,-137.5,130,,315
1,SBD,Raw,82.5,F,Helena Gimeno Valero,Open,1997-04-07,26,76.40,WRPF Spain,Spain,135,147.5,157.5,157.5,165,107.5,115,117.5,117.5,,155,167.5,180,180,-185,455
2,SBD,Raw,82.5,F,Ramunė Šefeldienė,Open,1986-11-02,37,77.50,SefelTeam,Lithuania,145,152.5,-160,152.5,,90,97.5,101,101,,170,179,185,185,,438.5
1,SBD,Raw,75,M,Kajus Grenda,Sub-Juniors 17-19,2006-04-11,17,72.40,Ursa Power,Lithuania,120,-130,-130,120,,85,90,-100,90,,120,130,140,140,,350
2,SBD,Raw,75,M,Andrius Danila,Teen 14-16,2007-03-08,16,73.50,Ursa Power,Lithuania,110,120,-130,120,,67.5,72.5,75,75,,140,150,155,155,,350
3,SBD,Raw,75,M,Ricardas Jakumas,Teen 14-16,2009-05-13,14,74.10,SefelTeam,Lithuania,35,47.5,60,60,,32.5,40,-45,40,,50,-72.5,80,80,,180
1,SBD,Raw,75,M,Meidas Martevics,Juniors 20-23,2002-07-21,21,74.50,Powerlifting love,Lithuania,170,180,-185,180,,115,-120,-120,115,,210,220,-230,220,,515
1,SBD,Raw,75,M,Paulius Kivylius,Open,1992-12-08,30,74.30,,Lithuania,170,180,190,190,,115,120,122.5,122.5,,-210,210,220,220,,532.5
3,SBD,Raw,75,M,Linas Kesiūnas,Open,1995-07-12,28,74,,Lithuania,155,-165,165,165,,-105,105,112.5,112.5,,-195,-205,210,210,,487.5
1,SBD,Raw,82.5,M,Aistis Gvazdauskas,Sub-Juniors 17-19,2005-12-23,17,80.90,Powerlifting love,Lithuania,162.5,170,175,175,,115,120,-125,120,,172.5,180,185,185,,480
2,SBD,Raw,82.5,M,Domantas Totoris,Teen 14-16,2007-02-26,16,78.40,Ursa Power,Lithuania,110,-120,-130,110,,67.5,75,-80,75,,-140,-145,145,145,,330
1,SBD,Raw,82.5,M,Marijonas Grenda,Juniors 20-23,2003-07-28,20,79.60,Powerlifting love,Lithuania,160,-167.5,172.5,172.5,,100,-105,-105,100,,210,222.5,230,230,,502.5
1,SBD,Raw,82.5,M,Mindaugas Marcelis,Open,1986-10-14,37,80.90,,Lithuania,195,205,212.5,212.5,,125,130,135,135,,200,215,230,230,,577.5
2,SBD,Raw,82.5,M,Linas Kondratavičius,Open,1987-02-11,36,82.10,Powerlifting love,Lithuania,145,-152.5,155,155,,105,-110,110,110,,165,172.5,-177.5,172.5,,437.5
1,SBD,Raw,90,M,Sikstas Murauskas,Teen 14-16,2007-09-16,16,88,,Lithuania,160,170,-182.5,170,,110,120,-130,120,,160,175,185,185,,475
2,SBD,Raw,90,M,Patrikas Vasiliauskas,Teen 14-16,2009-01-03,14,89.70,,Lithuania,-145,150,160,160,,-105,107.5,-112.5,107.5,,160,175,185,185,,452.5
1,SBD,Raw,90,M,Dovydas Lebrikas,Juniors 20-23,2001-07-11,22,89.80,Powerlifting love,Lithuania,230,240,-245,240,,125,132.5,-135,132.5,,250,-260,260,260,-275,632.5
2,SBD,Raw,90,M,Ugnius Aldosinas,Juniors 20-23,2003-04-23,20,89.60,Powerlifting love,Lithuania,237.5,-247.5,247.5,247.5,,127.5,132.5,-135,132.5,,-240,250,-255,250,,630
3,SBD,Raw,90,M,Paulius Jakutavicius,Juniors 20-23,2000-12-14,22,89.40,Powerlifting love,Lithuania,200,210,-215,210,,-125,-125,125,125,,275,290.5,-296,290.5,,625.5
1,SBD,Raw,90,M,Andrius Naglius,Open,1985-08-07,38,89.80,DK Strength Team,Lithuania,267.5,277.5,-282.5,277.5,,170,177.5,-182.5,177.5,,300,315,320,320,,775
2,SBD,Raw,90,M,Ruslan Kosse,Open,1997-03-03,26,88.90,WRPF Spain,Spain,215,230,240,240,,115,120,-125,120,,250,262.5,270,270,,630
3,SBD,Raw,90,M,Andžej Telepcov,Open,1997-09-27,26,86.80,Pain Team,Lithuania,-180,195,-215,195,,135,145,152.5,152.5,,200,220,-237.5,220,,567.5
4,SBD,Raw,90,M,Paulius Radionovas,Open,1996-01-16,27,89.50,Ursa Power,Lithuania,190,-200,-200,190,,145,152.5,157.5,157.5,,200,210,-222.5,210,,557.5
5,SBD,Raw,90,M,Modestas Sergejevas,Open,1998-10-23,25,88.30,Powerlifting love,Lithuania,175,187.5,-195,187.5,,130,-135,-135,130,,215,-225,-225,215,,532.5
DQ,SBD,Raw,90,M,Giedrius Plytninkas,Open,1996-03-27,27,88.80,DK Strength Team,Lithuania,230,250,260,260,,140,150,-162.5,150,,,,,,,
1,SBD,Raw,100,M,Dominykas Novikovas,Teen 14-16,2007-01-30,16,100,Powerlifting love,Lithuania,235,245.5,,245.5,,145,150,-155,150,,275,-290,-300,275,,670.5
1,SBD,Raw,100,M,Marius Anilionis,Juniors 20-23,2000-05-10,23,98.40,VU Komanda,Lithuania,190,200,-202.5,200,,172.5,180,-186,180,,230,-240,,230,,610
2,SBD,Raw,100,M,Edgaras Daukšys,Juniors 20-23,2002-09-06,21,98.70,DK Strength Team,Lithuania,190,200,-215,200,,100,110,-120,110,,-240,-240,245,245,,555
3,SBD,Raw,100,M,Jonas Dovidas,Juniors 20-23,2001-06-24,22,97.20,,Lithuania,155,165,175,175,,115,125,-132.5,125,,190,200,-212.5,200,,500
1,SBD,Raw,100,M,Benas Uljanov,Open,1997-06-01,26,99.60,Pain Team,Lithuania,280,-300,-300,280,,150,160,170,170,,280,-295,310,310,,760
2,SBD,Raw,100,M,Andrius Raskevicius,Open,1990-03-19,33,98.40,Powerlifting love,Lithuania,192.5,202.5,210,210,,157.5,165,-170,165,,235,245,-250,245,,620
3,SBD,Raw,100,M,Ilya Skiba,Open,1991-05-24,32,94.50,,Lithuania,195,202.5,207.5,207.5,,147.5,152.5,-157.5,152.5,,205,-215,215,215,,575
4,SBD,Raw,100,M,Dominykas Katilius,Open,1996-06-24,27,96.50,Ursa Power,Lithuania,160,175,190,190,,100,112.5,120,120,,-170,180,205,205,,515
5,SBD,Raw,100,M,Elvinas Valiukevicius,Open,1993-03-20,30,97.70,Powerlifting love,Lithuania,150,157.5,165,165,,125,127.5,-132.5,127.5,,180,-185,-185,180,,472.5
6,SBD,Raw,100,M,Romas Rudys,Open,1999-09-02,24,91,SefelTeam,Lithuania,130,-147.5,-150,130,,105,115,-120,115,,175,190,200,200,,445
1,SBD,Raw,110,M,Dominykas Lapėnas,Sub-Juniors 17-19,2006-08-04,17,102.90,,Lithuania,-170,-170,170,170,,100,110,-120,110,,170,190,-192.5,190,,470
1,SBD,Raw,110,M,Tomas Milosas,Juniors 20-23,2000-05-29,23,104.30,SefelTeam,Lithuania,155,-170,-170,155,,142.5,-150,150,150,,185,200,215,215,,520
1,SBD,Raw,110,M,Paul-Eerik Rosenberg,Open,1992-10-16,31,104,Klubi Kover Kang,Estonia,275,290,300,300,,182.5,190,-192.5,190,,-310,325,335,335,,825
2,SBD,Raw,110,M,Augustinas Motiejūnas,Open,1997-09-27,26,108.50,DK Strength Team,Lithuania,260,275,285,285,,185,-195,195,195,,280,295,-305,295,,775
3,SBD,Raw,110,M,Martynas Orlovas,Open,1997-04-03,26,108.80,,Lithuania,245,255,267.5,267.5,,175,185,195,195,,-270,270,285,285,,747.5
4,SBD,Raw,110,M,Modestas Kasperavičius,Open,1998-06-22,25,108.40,DK Strength Team,Lithuania,240,250,-257.5,250,,-180,180,190,190,,290,-305,305,305,,745
5,SBD,Raw,110,M,Domantas Atstopas,Open,1998-08-31,25,106.80,,Lithuania,250,260,270,270,,180,187.5,195,195,,-250,260,-270,260,,725
1,SBD,Raw,125,M,Serhii Yaremchuk,Open,1989-06-03,34,115,,Ukraine,255,265,280,280,,200,-210,225,225,,280,300,-325,300,,805
2,SBD,Raw,125,M,Vytautas Sakavicius,Open,1988-07-31,35,121.40,DK Strength Team,Lithuania,255,265,270,270,,155,-165,172.5,172.5,,285,295,-300,295,,737.5
1,SBD,Raw,140,M,Aurimas Grabinskas,Open,1987-08-16,36,135,DK Strength Team,Lithuania,300,325,-340,325,,210,222.5,-230,222.5,,320,340,-357.5,340,,887.5
1,SBD,Wraps,44,F,Tamara Bitskevich,Masters 40-49,1982-03-15,41,42.50,,Lithuania,90,95,100,100,,45,47.5,-50,47.5,,110,120,122.5,122.5,,270
1,SBD,Wraps,56,F,Kristīne Morskova,Masters 40-49,1980-09-02,43,55.70,WRPF Latvia,Latvia,100,-105,105,105,,-55,-60,60,60,,-110,120,130,130,,295
1,SBD,Wraps,60,F,Elena Silickiene,Open,1988-01-23,35,58.60,Ironhood power team gym,Lithuania,85,-92.5,-95,85,,50,-52.5,-52.5,50,,95,102.5,107.5,107.5,,242.5
1,SBD,Wraps,75,F,Viktorija Tamulevičienė,Open,1991-10-30,32,70,Ursa Power,Lithuania,90,105,-110,105,,42.5,45,-47.5,45,,110,117.5,-120,117.5,,267.5
1,SBD,Wraps,75,F,Bella Džambulatova,Masters 40-49,1974-03-12,49,67.70,WRPF Latvia,Latvia,90,100,110,110,,70,75,80,80,,120,130,140,140,,330
DQ,SBD,Wraps,82.5,F,Karina Bagažkova,Open,1986-06-20,37,81.60,WRPF Latvia,Latvia,120,130,140,140,,70,75,-80,75,,-130,-130,,,,
1,SBD,Wraps,82.5,M,Gustav Nylen,Open,1995-06-26,28,77.40,,Sweden,140,145,-150,145,,90,100,-105,100,,-180,180,200,200,,445
1,SBD,Wraps,90,M,Ernestas Šimkevičius,Open,1988-01-16,35,89,DK Strength Team,Lithuania,230,241,245,245,,150,155,157.5,157.5,,240,250,-260,250,,652.5
1,SBD,Wraps,100,M,Denis Sadkovskij,Masters 40-49,1980-07-20,43,98.90,Ironhood power team gym,Lithuania,200,210,220,220,,150,160,165,165,,230,245,255,255,,640
1,SBD,Wraps,110,M,Jordanas Paulauskas,Juniors 20-23,2000-07-03,23,109,VU Komanda,Lithuania,225,240,255,255,,135,-150,150,150,,230,250,,250,,655
1,SBD,Wraps,125,M,Mantas Maknavicius,Teen 14-16,2007-04-24,16,112.90,,Lithuania,-175,180,190,190,,110,115,-122.5,115,,180,195,210,210,,515
1,SBD,Wraps,140,M,Victor Olofsson,Open,1995-05-31,28,130.20,,Sweden,180,-190,-190,180,,80,90,-100,90,,180,200,-210,200,,470
1,SBD,Wraps,140+,M,Vincent Theorin,Open,1994-05-05,29,142.80,,Sweden,260,280,-300,280,,150,170,-180,170,,280,300,-317.5,300,,750
